Tutorial · TrafficAssignment.jl
…
using TrafficAssignment
using PrettyTables  # for table display
using CairoMakie, Tyler  # for plotting
Instances
The package gives you access to the following instances:

pretty_table(summarize_instances())

┌ Warning: Loading Munich from TransportationNetworks dataset failed
│   exception = ArgumentError: row indices I[k] must satisfy 1 <= I[k] <= m
└ @ TrafficAssignment ~/work/TrafficAssignment.jl/TrafficAssignment.jl/src/read.jl:582
┌──────────────────────────┬────────────────────────────────────────────────────
│                  dataset │                                          instance ⋯
│ TrafficAssignmentDataset │                                            String ⋯
├──────────────────────────┼────────────────────────────────────────────────────
│   TransportationNetworks │                                           Anaheim ⋯
│   TransportationNetworks │                                            Austin ⋯
│   TransportationNetworks │                                         Barcelona ⋯
│   TransportationNetworks │                                     Berlin-Center ⋯
│   TransportationNetworks │                             Berlin-Friedrichshain ⋯
│   TransportationNetworks │                               Berlin-Mitte-Center ⋯
│   TransportationNetworks │ Berlin-Mitte-Prenzlauerberg-Friedrichshain-Center ⋯
│   TransportationNetworks │                      Berlin-Prenzlauerberg-Center ⋯
│   TransportationNetworks │                                 Berlin-Tiergarten ⋯
│   TransportationNetworks │                                Birmingham-England ⋯
│   TransportationNetworks │                                    Braess-Example ⋯
│   TransportationNetworks │                                    Chicago-Sketch ⋯
│   TransportationNetworks │                             Eastern-Massachusetts ⋯
│   TransportationNetworks │                                         GoldCoast ⋯
│   TransportationNetworks │                                 Hessen-Asymmetric ⋯
│                        ⋮ │                                                 ⋮ ⋱
└──────────────────────────┴────────────────────────────────────────────────────
                                                   4 columns and 28 rows omitted
…
